Type,Product,Started Date,Completed Date,Description,Amount,Fee,Currency,State,Balance
TRANSFER,Savings,2023-08-01 07:15:31,2023-08-01 07:15:31,To EUR Savings,1000.00,0.00,EUR,COMPLETED,3000.00
TRANSFER,Savings,2023-08-28 06:58:22,2023-08-28 06:58:22,To EUR,-500.00,0.00,EUR,COMPLETED,2500.00
TRANSFER,Savings,2023-08-29 08:06:18,2023-08-29 08:06:18,To EUR Savings,500.00,0.00,EUR,COMPLETED,3000.00
TRANSFER,Savings,2023-09-01 07:21:29,2023-09-01 07:21:29,To EUR Savings,1000.00,0.00,EUR,COMPLETED,4000.00
TRANSFER,Savings,2023-09-19 17:05:26,2023-09-19 17:05:26,To EUR,-1000.00,0.00,EUR,COMPLETED,3000.00
TRANSFER,Savings,2023-09-23 07:35:50,2023-09-23 07:35:50,To EUR,-1000.00,0.00,EUR,COMPLETED,2000.00
TRANSFER,Savings,2023-09-25 20:27:38,2023-09-25 20:27:38,To EUR,-300.00,0.00,EUR,COMPLETED,1700.00
TRANSFER,Savings,2023-09-26 16:25:10,2023-09-26 16:25:10,To EUR,-100.00,0.00,EUR,COMPLETED,1600.00
TRANSFER,Savings,2023-10-01 07:16:11,2023-10-01 07:16:11,To EUR Savings,1000.00,0.00,EUR,COMPLETED,2600.00
TRANSFER,Savings,2023-10-09 08:44:30,2023-10-09 08:44:30,To EUR,-714.00,0.00,EUR,COMPLETED,1886.00
TRANSFER,Savings,2023-10-11 09:58:22,2023-10-11 09:58:22,Revolut Ltd,-200.00,0.00,EUR,COMPLETED,1686.00
TRANSFER,Savings,2023-10-11 10:02:04,2023-10-11 10:02:04,Revolut Ltd,-150.00,0.00,EUR,COMPLETED,1536.00
CARD_PAYMENT,Current,2023-06-30 09:41:16,2023-07-03 12:54:58,PROMO Cash&Carry,-47.08,0.00,EUR,COMPLETED,14205.31
CARD_PAYMENT,Current,2023-07-01 12:46:53,2023-07-03 12:55:15,Rimi,-1.79,0.00,EUR,COMPLETED,14203.52
CARD_PAYMENT,Current,2023-06-30 09:59:30,2023-07-03 12:55:15,Rimi,-18.64,0.00,EUR,COMPLETED,14184.88
CARD_PAYMENT,Current,2023-07-02 13:46:41,2023-07-03 12:55:47,Kumeliuko Sapnas,-6.00,0.00,EUR,COMPLETED,14178.88
CARD_PAYMENT,Current,2023-06-30 10:05:54,2023-07-03 12:56:07,Gintarinė vaistinė,-25.82,0.00,EUR,COMPLETED,14153.06
CARD_PAYMENT,Current,2023-07-02 17:19:15,2023-07-03 14:29:31,Uab Lama,-6.99,0.00,EUR,COMPLETED,14146.07
TRANSFER,Current,2023-07-04 10:02:00,2023-07-04 10:02:01,To UAB „DANEKA“,-3900.00,0.00,EUR,COMPLETED,10246.07
CARD_PAYMENT,Current,2023-07-03 08:31:48,2023-07-04 13:14:05,Rimi,-25.17,0.00,EUR,COMPLETED,10220.90
CARD_PAYMENT,Current,2023-07-02 02:18:16,2023-07-04 13:34:25,Aruba.it,-3.38,0.00,EUR,COMPLETED,10217.52
TRANSFER,Current,2023-07-04 20:37:36,2023-07-04 20:37:39,To Adomas Boruta,-3000.00,0.00,EUR,COMPLETED,7217.52
CARD_PAYMENT,Current,2023-07-04 07:20:12,2023-07-05 12:06:40,Kauno Kliniku Stovejim,-1.00,0.00,EUR,COMPLETED,7216.52
CARD_PAYMENT,Current,2023-07-05 18:06:19,2023-07-06 15:12:45,Parduotuve Bostonas,-6.80,0.00,EUR,COMPLETED,7209.72
EXCHANGE,Current,2023-07-07 17:02:50,2023-07-07 17:02:50,Exchanged to GBP,-511.16,0.00,EUR,COMPLETED,6698.56
CARD_PAYMENT,Current,2023-07-06 20:11:57,2023-07-08 02:40:43,Voltus,-1078.95,0.00,EUR,COMPLETED,5619.61
CARD_PAYMENT,Current,2023-07-08 07:28:55,2023-07-09 13:05:50,Parduotuve Bostonas,-0.15,0.00,EUR,COMPLETED,5619.46
CARD_PAYMENT,Current,2023-07-07 08:27:25,2023-07-10 13:20:14,Rimi,-34.66,0.00,EUR,COMPLETED,5584.80
TRANSFER,Current,2023-07-11 16:19:21,2023-07-11 16:19:21,Revolut Ltd,-300.00,0.00,EUR,COMPLETED,5284.80
LOAN_PAYMENT,Current,2023-07-11 22:31:21,2023-07-11 22:31:21,repayment,-212.08,0.00,EUR,COMPLETED,5072.72
CARD_PAYMENT,Current,2023-07-19 21:07:29,2023-07-20 13:20:45,Infigoo,-100.20,0.00,EUR,COMPLETED,4972.52
CARD_PAYMENT,Current,2023-07-20 06:42:15,2023-07-21 13:24:29,pildyk.lt,-0.99,0.00,EUR,COMPLETED,4971.53
CARD_PAYMENT,Current,2023-07-21 20:39:00,2023-07-22 07:02:33,CloudFlare,-31.67,0.00,EUR,COMPLETED,4939.86
CARD_PAYMENT,Current,2023-07-22 18:06:33,2023-07-23 06:22:03,ERMITAŽAS,-1884.68,0.00,EUR,COMPLETED,3055.18
TRANSFER,Current,2023-07-24 20:09:10,2023-07-24 20:09:11,To UAB ELECTRONIC TRADE,-2228.96,0.00,EUR,COMPLETED,826.22
CARD_REFUND,Current,2023-07-26 01:00:00,2023-07-27 19:01:13,ERMITAŽAS,1884.68,0.00,EUR,COMPLETED,2710.90
CARD_PAYMENT,Current,2023-07-28 13:04:25,2023-07-29 11:51:41,pildyk.lt,-5.89,0.00,EUR,COMPLETED,2705.01
TRANSFER,Current,2023-07-30 07:32:51,2023-07-30 07:32:53,To Adomas Boruta,-1500.00,0.00,EUR,COMPLETED,1205.01
TRANSFER,Current,2023-08-01 07:15:31,2023-08-01 07:15:31,To EUR Savings,-1000.00,0.00,EUR,COMPLETED,205.01
TRANSFER,Current,2023-08-02 08:51:12,2023-08-02 08:51:15,To UAB GABESTA,-53.72,0.00,EUR,COMPLETED,151.29
CARD_PAYMENT,Current,2023-08-01 12:14:48,2023-08-02 12:16:48,Aruba.it,-3.38,0.00,EUR,COMPLETED,147.91
TOPUP,Current,2023-08-06 08:41:36,2023-08-06 08:41:36,Payment from Boruta Adomas,500.00,0.00,EUR,COMPLETED,647.91
TRANSFER,Current,2023-08-06 08:42:11,2023-08-06 08:42:11,Revolut Ltd,-300.00,0.00,EUR,COMPLETED,347.91
CARD_PAYMENT,Current,2023-08-06 09:52:18,2023-08-07 13:51:02,pildyk.lt,-8.99,0.00,EUR,COMPLETED,338.92
CARD_PAYMENT,Current,2023-08-06 17:01:28,2023-08-07 15:01:37,Puławska,-52.04,0.52,EUR,COMPLETED,286.36
CARD_PAYMENT,Current,2023-08-07 19:38:44,2023-08-08 05:38:36,Carrefour,-6.01,0.00,EUR,COMPLETED,280.35
CARD_PAYMENT,Current,2023-08-07 19:00:59,2023-08-08 12:44:18,Samsonite,-192.15,0.00,EUR,COMPLETED,88.20
CARD_PAYMENT,Current,2023-08-07 13:55:39,2023-08-08 12:47:20,Kuźnia Smaku. Restauracja,-15.41,0.00,EUR,COMPLETED,72.79
TOPUP,Current,2023-08-08 19:27:06,2023-08-08 19:27:07,Payment from Boruta Adomas,500.00,0.00,EUR,COMPLETED,572.79
CARD_PAYMENT,Current,2023-08-08 13:11:55,2023-08-09 06:25:54,Elementy,-10.58,0.00,EUR,COMPLETED,562.21
CARD_PAYMENT,Current,2023-08-08 17:38:50,2023-08-09 06:26:18,Ziko Apteka,-2.70,0.00,EUR,COMPLETED,559.51
CARD_PAYMENT,Current,2023-08-08 21:38:38,2023-08-09 06:39:55,With Juno,-156.61,0.00,EUR,COMPLETED,402.90
CARD_PAYMENT,Current,2023-08-08 21:40:36,2023-08-09 06:39:55,With Juno,-133.41,0.00,EUR,COMPLETED,269.49
TOPUP,Current,2023-08-09 10:51:40,2023-08-09 10:51:41,Payment from Boruta Adomas,500.00,0.00,EUR,COMPLETED,769.49
CARD_PAYMENT,Current,2023-08-08 20:23:49,2023-08-09 11:30:13,Carrefour,-17.35,0.00,EUR,COMPLETED,752.14
CARD_PAYMENT,Current,2023-08-08 06:51:26,2023-08-09 14:51:12,Novotel,-17.87,0.00,EUR,COMPLETED,734.27
CARD_PAYMENT,Current,2023-08-08 20:11:37,2023-08-09 14:53:25,Prosciutteria,-83.85,0.00,EUR,COMPLETED,650.42
CARD_PAYMENT,Current,2023-08-09 17:07:31,2023-08-10 06:01:23,Dosta Sp. Z O.o.,-53.95,0.00,EUR,COMPLETED,596.47
CARD_PAYMENT,Current,2023-08-09 11:53:18,2023-08-10 06:15:22,Leroy Merlin,-112.54,0.00,EUR,COMPLETED,483.93
CARD_PAYMENT,Current,2023-08-09 13:45:57,2023-08-10 06:15:51,IKEA,-25.79,0.00,EUR,COMPLETED,458.14
CARD_PAYMENT,Current,2023-08-09 14:14:19,2023-08-10 12:05:43,Lidl,-23.06,0.00,EUR,COMPLETED,435.08
CARD_PAYMENT,Current,2023-08-09 19:07:53,2023-08-10 12:16:28,Food Lover,-35.67,0.00,EUR,COMPLETED,399.41
CARD_PAYMENT,Current,2023-08-09 11:03:28,2023-08-10 12:19:53,JYSK,-63.01,0.00,EUR,COMPLETED,336.40
CARD_PAYMENT,Current,2023-08-09 10:08:02,2023-08-10 12:20:25,Parking Novotel,-87.57,0.00,EUR,COMPLETED,248.83
TRANSFER,Current,2023-08-10 19:53:25,2023-08-10 19:53:25,To RUTA BORUTIENE,-53.00,0.00,EUR,COMPLETED,195.83
TOPUP,Current,2023-08-11 11:12:21,2023-08-11 11:12:22,Payment from Boruta Adomas,200.00,0.00,EUR,COMPLETED,395.83
LOAN_PAYMENT,Current,2023-08-11 22:26:51,2023-08-11 22:26:51,repayment,-212.08,0.00,EUR,COMPLETED,183.75
TOPUP,Current,2023-08-19 08:10:55,2023-08-19 08:10:55,Payment from Boruta Adomas,600.00,0.00,EUR,COMPLETED,783.75
TRANSFER,Current,2023-08-21 07:58:53,2023-08-21 07:58:56,To Mindaugas Jaskūnas,-340.00,0.00,EUR,COMPLETED,443.75
TOPUP,Current,2023-08-23 08:09:38,2023-08-23 08:09:38,Payment from Adomas Boruta,120.00,0.00,EUR,COMPLETED,563.75
EXCHANGE,Current,2023-08-23 08:10:27,2023-08-23 08:10:27,Exchanged to GBP,-512.90,0.00,EUR,COMPLETED,50.85
CARD_PAYMENT,Current,2023-08-23 08:21:10,2023-08-24 11:47:05,Gintarinė vaistinė,-31.98,0.00,EUR,COMPLETED,18.87
CARD_PAYMENT,Current,2023-08-25 08:06:38,2023-08-26 12:06:34,DPD,-6.99,0.00,EUR,COMPLETED,11.88
TRANSFER,Current,2023-08-28 06:58:22,2023-08-28 06:58:22,To EUR,500.00,0.00,EUR,COMPLETED,511.88
CARD_PAYMENT,Current,2023-08-25 08:32:20,2023-08-28 13:04:36,Rimi,-9.24,0.00,EUR,COMPLETED,502.64
TOPUP,Current,2023-08-29 08:05:52,2023-08-29 08:05:52,Payment from Boruta Adomas,1500.00,0.00,EUR,COMPLETED,2002.64
TRANSFER,Current,2023-08-29 08:06:18,2023-08-29 08:06:18,To EUR Savings,-500.00,0.00,EUR,COMPLETED,1502.64
CARD_PAYMENT,Current,2023-08-28 09:40:41,2023-08-29 12:01:22,pildyk.lt,-5.89,0.00,EUR,COMPLETED,1496.75
CARD_PAYMENT,Current,2023-08-28 14:49:56,2023-08-29 12:03:21,DEPO,-87.42,0.00,EUR,COMPLETED,1409.33
CARD_PAYMENT,Current,2023-08-28 08:24:05,2023-08-29 12:04:06,Uab Ulmas Sandelis,-153.96,0.00,EUR,COMPLETED,1255.37
CARD_PAYMENT,Current,2023-08-28 12:59:08,2023-08-29 12:04:11,Forto Dvaras,-26.65,0.00,EUR,COMPLETED,1228.72
CARD_PAYMENT,Current,2023-08-28 09:17:25,2023-08-29 12:04:20,CityBee,-3.31,0.00,EUR,COMPLETED,1225.41
CARD_PAYMENT,Current,2023-08-28 08:53:34,2023-08-29 12:04:20,CityBee,-2.29,0.00,EUR,COMPLETED,1223.12
CARD_PAYMENT,Current,2023-08-28 11:43:06,2023-08-29 12:04:21,CityBee,-12.84,0.00,EUR,COMPLETED,1210.28
CARD_PAYMENT,Current,2023-08-28 08:48:50,2023-08-29 12:04:21,CityBee,-0.81,0.00,EUR,COMPLETED,1209.47
CARD_PAYMENT,Current,2023-08-28 10:23:32,2023-08-29 12:04:21,CityBee,-10.99,0.00,EUR,COMPLETED,1198.48
CARD_PAYMENT,Current,2023-08-28 07:46:19,2023-08-29 12:04:21,CityBee,-10.99,0.00,EUR,COMPLETED,1187.49
TRANSFER,Current,2023-09-01 07:21:29,2023-09-01 07:21:29,To EUR Savings,-1000.00,0.00,EUR,COMPLETED,187.49
CARD_PAYMENT,Current,2023-09-02 19:19:47,2023-09-03 06:04:10,Wizz Air,-61.00,0.00,EUR,COMPLETED,126.49
TOPUP,Current,2023-09-03 18:26:20,2023-09-03 18:26:20,Payment from Boruta Adomas,500.00,0.00,EUR,COMPLETED,626.49
CARD_PAYMENT,Current,2023-09-03 18:14:08,2023-09-04 12:46:04,pildyk.lt,-7.00,0.00,EUR,COMPLETED,619.49
EXCHANGE,Current,2023-09-04 13:04:05,2023-09-04 13:04:05,Exchanged to GBP,-7.03,0.00,EUR,COMPLETED,612.46
CARD_PAYMENT,Current,2023-08-31 22:18:11,2023-09-04 13:10:44,Aruba.it,-3.38,0.00,EUR,COMPLETED,609.08
EXCHANGE,Current,2023-09-04 13:38:40,2023-09-04 13:38:40,Exchanged to GBP,-2.05,0.00,EUR,COMPLETED,607.03
CARD_PAYMENT,Current,2023-09-04 13:07:35,2023-09-05 13:05:09,Pho Com,-10.43,0.00,EUR,COMPLETED,596.60
CARD_PAYMENT,Current,2023-09-05 19:39:35,2023-09-06 06:37:48,Rice Coming Noodle Bar,-52.48,0.00,EUR,COMPLETED,544.12
CARD_PAYMENT,Current,2023-09-05 20:37:21,2023-09-06 12:30:23,Sainsbury's,-7.92,0.00,EUR,COMPLETED,536.20
CARD_PAYMENT,Current,2023-09-05 12:53:40,2023-09-06 12:35:39,Mercato Metropolitano,-13.47,0.00,EUR,COMPLETED,522.73
CARD_PAYMENT,Current,2023-09-06 18:06:00,2023-09-07 18:05:10,Transport for London,-5.32,0.00,EUR,COMPLETED,517.41
CARD_PAYMENT,Current,2023-09-09 20:23:38,2023-09-10 11:52:45,Sainsbury's,-4.32,0.04,EUR,COMPLETED,513.05
CARD_PAYMENT,Current,2023-09-09 12:25:24,2023-09-10 11:58:37,Mercato Metropolitano,-7.59,0.08,EUR,COMPLETED,505.38
CARD_PAYMENT,Current,2023-09-09 13:06:19,2023-09-10 17:09:12,Transport for London,-6.54,0.07,EUR,COMPLETED,498.77
CARD_PAYMENT,Current,2023-09-10 15:08:49,2023-09-11 06:11:08,Boots,-5.83,0.06,EUR,COMPLETED,492.88
CARD_PAYMENT,Current,2023-09-10 10:49:39,2023-09-11 14:01:10,Transport for London,-2.05,0.02,EUR,COMPLETED,490.81
CARD_PAYMENT,Current,2023-09-10 12:00:14,2023-09-11 14:03:18,Japan Centre Group,-35.13,0.35,EUR,COMPLETED,455.33
CARD_PAYMENT,Current,2023-09-10 12:54:11,2023-09-11 14:07:26,East Midlands Railway,-14.47,0.14,EUR,COMPLETED,440.72
CARD_PAYMENT,Current,2023-09-10 12:56:01,2023-09-11 14:07:26,East Midlands Railway,-5.72,0.06,EUR,COMPLETED,434.94
CARD_PAYMENT,Current,2023-09-10 12:29:11,2023-09-11 14:07:56,Pho & Bun,-15.68,0.16,EUR,COMPLETED,419.10
LOAN_PAYMENT,Current,2023-09-11 22:16:24,2023-09-11 22:16:24,repayment,-212.08,0.00,EUR,COMPLETED,207.02
CARD_PAYMENT,Current,2023-09-11 06:00:58,2023-09-12 03:12:54,Microsoft,-99.00,0.00,EUR,COMPLETED,108.02
CARD_PAYMENT,Current,2023-09-10 12:38:54,2023-09-12 17:05:52,Transport for London,-7.47,0.01,EUR,COMPLETED,100.54
CARD_PAYMENT,Current,2023-09-12 16:13:53,2023-09-13 11:18:49,IKI,-9.49,0.00,EUR,COMPLETED,91.05
CARD_PAYMENT,Current,2023-09-13 07:20:05,2023-09-14 06:37:52,Unipark,-0.22,0.00,EUR,COMPLETED,90.83
CARD_PAYMENT,Current,2023-09-13 07:45:38,2023-09-14 06:37:52,Unipark,-0.82,0.00,EUR,COMPLETED,90.01
TRANSFER,Current,2023-09-19 17:05:26,2023-09-19 17:05:26,To EUR,1000.00,0.00,EUR,COMPLETED,1090.01
EXCHANGE,Current,2023-09-19 17:05:50,2023-09-19 17:05:50,Exchanged to GBP,-708.43,0.00,EUR,COMPLETED,381.58
CARD_PAYMENT,Current,2023-09-19 14:17:27,2023-09-20 06:21:07,Unipark,-0.90,0.00,EUR,COMPLETED,380.68
TRANSFER,Current,2023-09-21 13:07:17,2023-09-21 13:07:18,To Adomas Boruta,-230.00,0.00,EUR,COMPLETED,150.68
CARD_PAYMENT,Current,2023-09-20 08:59:36,2023-09-22 12:09:50,Skulas Virbaliskiai,-62.99,0.00,EUR,COMPLETED,87.69
TRANSFER,Current,2023-09-23 07:35:50,2023-09-23 07:35:50,To EUR,1000.00,0.00,EUR,COMPLETED,1087.69
TRANSFER,Current,2023-09-23 07:37:00,2023-09-23 07:37:02,To Adomas Boruta,-1000.00,0.00,EUR,COMPLETED,87.69
TRANSFER,Current,2023-09-25 20:27:38,2023-09-25 20:27:38,To EUR,300.00,0.00,EUR,COMPLETED,387.69
TRANSFER,Current,2023-09-25 20:29:47,2023-09-25 20:29:50,"To MB ,,ATERMA“",-300.00,0.00,EUR,COMPLETED,87.69
TRANSFER,Current,2023-09-26 16:25:10,2023-09-26 16:25:10,To EUR,100.00,0.00,EUR,COMPLETED,187.69
CARD_PAYMENT,Current,2023-09-27 09:39:46,2023-09-28 11:26:08,pildyk.lt,-5.89,0.00,EUR,COMPLETED,181.80
TOPUP,Current,2023-09-30 10:57:28,2023-09-30 10:57:29,Payment from Boruta Adomas,1500.00,0.00,EUR,COMPLETED,1681.80
TRANSFER,Current,2023-09-30 10:58:10,2023-09-30 10:58:10,Revolut Ltd,-200.00,0.00,EUR,COMPLETED,1481.80
CARD_PAYMENT,Current,2023-09-30 15:54:38,2023-10-01 05:53:02,Marshall,-46.39,0.46,EUR,COMPLETED,1434.95
CARD_PAYMENT,Current,2023-09-30 14:13:57,2023-10-01 05:53:39,RETRO Restauracja & Pensjonat,-56.36,0.56,EUR,COMPLETED,1378.03
TRANSFER,Current,2023-10-01 07:16:11,2023-10-01 07:16:11,To EUR Savings,-1000.00,0.00,EUR,COMPLETED,378.03
CARD_PAYMENT,Current,2023-09-30 10:56:41,2023-10-01 12:05:30,pildyk.lt,-8.99,0.00,EUR,COMPLETED,369.04
CARD_PAYMENT,Current,2023-09-30 16:09:16,2023-10-01 12:49:22,ROSSMANN,-20.16,0.20,EUR,COMPLETED,348.68
CARD_PAYMENT,Current,2023-10-01 08:15:17,2023-10-02 13:47:30,Aruba.it,-3.38,0.00,EUR,COMPLETED,345.30
CARD_PAYMENT,Current,2023-10-01 19:21:37,2023-10-02 14:42:54,Naviparking Poland Sp.,-54.19,0.54,EUR,COMPLETED,290.57
CARD_PAYMENT,Current,2023-10-01 13:56:23,2023-10-02 14:43:50,Pekin Duck,-52.89,0.53,EUR,COMPLETED,237.15
CARD_PAYMENT,Current,2023-10-02 07:13:54,2023-10-03 06:11:02,Galeria Wypieków Lubaszka,-3.95,0.00,EUR,COMPLETED,233.20
TRANSFER,Current,2023-10-03 06:45:02,2023-10-03 06:45:03,Revolut Ltd,-100.00,0.00,EUR,COMPLETED,133.20
CARD_PAYMENT,Current,2023-10-02 07:17:25,2023-10-03 14:30:49,Żabka,-0.65,0.00,EUR,COMPLETED,132.55
CARD_PAYMENT,Current,2023-10-03 19:09:36,2023-10-04 06:12:20,Yache Michal Pylat,-24.69,0.00,EUR,COMPLETED,107.86
CARD_PAYMENT,Current,2023-10-03 06:38:16,2023-10-04 06:29:05,Galeria Wypieków Lubaszka,-12.12,0.00,EUR,COMPLETED,95.74
CARD_PAYMENT,Current,2023-10-02 19:11:41,2023-10-04 06:29:41,Zagrywki,-7.39,0.00,EUR,COMPLETED,88.35
CARD_PAYMENT,Current,2023-10-04 11:19:37,2023-10-05 06:00:56,Carrefour,-9.51,0.00,EUR,COMPLETED,78.84
CARD_PAYMENT,Current,2023-10-04 14:33:58,2023-10-05 14:18:46,Restauracja Spokojna,-29.61,0.26,EUR,COMPLETED,48.97
TOPUP,Current,2023-10-09 07:43:58,2023-10-09 07:43:58,Payment from Boruta Adomas,200.00,0.00,EUR,COMPLETED,248.97
TRANSFER,Current,2023-10-09 08:44:30,2023-10-09 08:44:30,To EUR,714.00,0.00,EUR,COMPLETED,962.97
TRANSFER,Current,2023-10-11 08:05:13,2023-10-11 08:05:13,Revolut Ltd,-710.00,0.00,EUR,COMPLETED,252.97
LOAN_PAYMENT,Current,2023-10-11 22:14:18,2023-10-11 22:14:18,repayment,-212.08,0.00,EUR,COMPLETED,40.89
CARD_PAYMENT,Current,2023-10-10 13:51:47,2023-10-12 13:33:14,pildyk.lt,-7.89,0.00,EUR,COMPLETED,33.00
EXCHANGE,Current,2023-10-13 05:13:45,2023-10-13 05:13:45,Exchanged to GBP,-5.80,0.00,EUR,COMPLETED,27.20
