﻿"SĄSKAITOS  (LT067044090102136963) IŠRAŠAS (UŽ LAIKOTARPĮ: 2023-10-01-2023-12-16)";
"DOK NR.";"DATA";"VALIUTA";"SUMA";"MOKĖTOJO ARBA GAVĖJO PAVADINIMAS";"MOKĖTOJO ARBA GAVĖJO IDENTIFIKACINIS KODAS";"SĄSKAITA";"KREDITO ĮSTAIGOS PAVADINIMAS";"KREDITO ĮSTAIGOS SWIFT KODAS";"MOKĖJIMO PASKIRTIS";"TRANSAKCIJOS KODAS";"DOKUMENTO DATA";"TRANSAKCIJOS TIPAS";"NUORODA";"DEBETAS/KREDITAS";"SUMA SĄSKAITOS VALIUTA";"SĄSKAITOS NR";"SĄSKAITOS VALIUTA";
"CLR7053208";2023-10-15;"EUR";16,12;"DEPO\VAKARINIS APLINKELIS 8\KAUNAS\UNKNOWN      LTU";"";"";"";"";"14/10/2023 13:23 kortelė...178803 DEPO/KAUNAS/LTU #448234, dok. nr. CLR7053208, operacijos nr. RO1240680444L01";"RO1240680444L01";2023-10-14;"PMNTCCRDOTHR-Atsiskaitymas POS Debit MC Mylimiausia";"";"D";16,12;"LT067044090102136963";"EUR";
"CLR7053208";2023-10-15;"EUR";45,98;"RIMI SM RINGAUDAI\VARZUPIO G.1, RINGAUDU K.\KAUNO R.\53348        LTU";"";"";"";"";"14/10/2023 13:54 kortelė...178803 RIMI SM RINGAUDAI/KAUNO R./LTU #450056, dok. nr. CLR7053208, operacijos nr. RO1240709437L01";"RO1240709437L01";2023-10-14;"PMNTCCRDOTHR-Atsiskaitymas POS Debit MC Mylimiausia";"";"D";45,98;"LT067044090102136963";"EUR";
"CLR7053208";2023-10-15;"EUR";92,29;"EKOLIUMENAS\Pramones pr. 8e\KAUNAS\LT-51223     LTU";"";"";"";"";"14/10/2023 12:19 kortelė...178803 EKOLIUMENAS/KAUNAS/LTU #444373, dok. nr. CLR7053208, operacijos nr. RO1240718687L01";"RO1240718687L01";2023-10-14;"PMNTCCRDOTHR-Atsiskaitymas POS Debit MC Mylimiausia";"";"D";92,29;"LT067044090102136963";"EUR";
"CLR7053208";2023-10-15;"EUR";78,00;"HOMEZONE\Pramones pr.8E\KAUNAS\51223        LTU";"";"";"";"";"14/10/2023 12:06 kortelė...178803 HOMEZONE/KAUNAS/LTU #443605, dok. nr. CLR7053208, operacijos nr. RO1240718714L01";"RO1240718714L01";2023-10-14;"PMNTCCRDOTHR-Atsiskaitymas POS Debit MC Mylimiausia";"";"D";78,00;"LT067044090102136963";"EUR";
"CLR7053208";2023-10-15;"EUR";6,93;"GINTARINE VAISTINE\VARZUPIO G.1, RINGAUDAI\KAUNO R.\53348        LTU";"";"";"";"";"14/10/2023 13:39 kortelė...178803 GINTARINE VAISTINE/KAUNO R./LTU #449152, dok. nr. CLR7053208, operacijos nr. RO1240728049L01";"RO1240728049L01";2023-10-14;"PMNTCCRDOTHR-Atsiskaitymas POS Debit MC Mylimiausia";"";"D";6,93;"LT067044090102136963";"EUR";
"";2023-10-16;"EUR";123,50;"UAB PAYSERA LT";"";"LT067044060004556274";"AB SEB BANKAS";"CBVILT2X";"R576836916 OrderNr: 1000213975 https://www.lemona.lt project. (Seller: Lemona), operacijos nr. RO1242134383L01";"RO1242134383L01";2023-10-16;"PMNTICDTBOOK-Pinigų pervedimas į kito kliento sąskaitą SEB banke";"";"D";123,50;"LT067044090102136963";"EUR";
"CLR7071561";2023-10-18;"EUR";12,48;"KESKO SENUKAI LITHUANI\ISLANDIJOS PL. 32\KAUNAS\LT-49112     LTU";"";"";"";"";"17/10/2023 12:30 kortelė...178803 KESKO SENUKAI LITHUANI/KAUNAS/LTU #745016, dok. nr. CLR7071561, operacijos nr. RO1243767382L01";"RO1243767382L01";2023-10-17;"PMNTCCRDOTHR-Atsiskaitymas POS Debit MC Mylimiausia";"";"D";12,48;"LT067044090102136963";"EUR";
"CLR7074994";2023-10-19;"EUR";102,43;"UAB ""FURNITANAS""      \DRAUGYSTES G. 19          \KAUNAS       \51230     LTULTU";"";"";"";"";"17/10/2023 13:16 kortelė...178803 UAB ""FURNITANAS""/KAUNAS/LTU #747791, dok. nr. CLR7074994, operacijos nr. RO1244856931L01";"RO1244856931L01";2023-10-17;"PMNTCCRDOTHR-Atsiskaitymas POS Debit MC Mylimiausia";"";"D";102,43;"LT067044090102136963";"EUR";
"CLR7084863";2023-10-20;"EUR";8,76;"Parduotuve Bostonas\J. Janonio g. 2, Kacergine\Kauno r.\53446     LTULTU";"";"";"";"";"19/10/2023 09:35 kortelė...178803 Parduotuve Bostonas/Kauno r./LTU #934516, dok. nr. CLR7084863, operacijos nr. RO1246377794L01";"RO1246377794L01";2023-10-19;"PMNTCCRDOTHR-Atsiskaitymas POS Debit MC Mylimiausia";"";"D";8,76;"LT067044090102136963";"EUR";
"REVITR23102159277856155";2023-10-21;"EUR";500,00;"Adomas Boruta";"";"LT903250057001793242";"REVOLUT PAYMENTS UAB";"REVOLT21";"Sent from Revolut, dok. nr. REVITR23102159277856155, unik. mokėj. kodas NOTPROVIDED, operacijos nr. RO1247150068L02";"RO1247150068L02";2023-10-21;"PMNTRCDTESCT-Lėšų įskaitymas - Momentinis mokėjimas";"";"C";500,00;"LT067044090102136963";"EUR";
"CLR7098646";2023-10-23;"EUR";37,17;"DEPO\VAKARINIS APLINKELIS 8\KAUNAS\UNKNOWN      LTU";"";"";"";"";"21/10/2023 15:07 kortelė...178803 DEPO/KAUNAS/LTU #154458, dok. nr. CLR7098646, operacijos nr. RO1248105932L01";"RO1248105932L01";2023-10-21;"PMNTCCRDOTHR-Atsiskaitymas POS Debit MC Mylimiausia";"";"D";37,17;"LT067044090102136963";"EUR";
"CLR7098646";2023-10-23;"EUR";14,38;"KESKO SENUKAI LITHUANI\ISLANDIJOS PL. 32\KAUNAS\LT-49112     LTU";"";"";"";"";"21/10/2023 13:47 kortelė...178803 KESKO SENUKAI LITHUANI/KAUNAS/LTU #149658, dok. nr. CLR7098646, operacijos nr. RO1248106567L01";"RO1248106567L01";2023-10-21;"PMNTCCRDOTHR-Atsiskaitymas POS Debit MC Mylimiausia";"";"D";14,38;"LT067044090102136963";"EUR";
"CLR7098646";2023-10-23;"EUR";2,58;"PIENO ZVAIGZDES FIL.KA\PRAMONES PR. 16\KAUNAS\000          LTU";"";"";"";"";"21/10/2023 12:21 kortelė...178803 PIENO ZVAIGZDES FIL.KA/KAUNAS/LTU #144494, dok. nr. CLR7098646, operacijos nr. RO1248174867L01";"RO1248174867L01";2023-10-21;"PMNTCCRDOTHR-Atsiskaitymas POS Debit MC Mylimiausia";"";"D";2,58;"LT067044090102136963";"EUR";
"CLR7098646";2023-10-23;"EUR";38,60;"RIMI ISLANDIJOS\ISLANDIJOS PL. 32\KAUNAS\UNKNOWN      LTU";"";"";"";"";"21/10/2023 14:23 kortelė...178803 RIMI ISLANDIJOS/KAUNAS/LTU #151814, dok. nr. CLR7098646, operacijos nr. RO1248181357L01";"RO1248181357L01";2023-10-21;"PMNTCCRDOTHR-Atsiskaitymas POS Debit MC Mylimiausia";"";"D";38,60;"LT067044090102136963";"EUR";
"CLR7098646";2023-10-23;"EUR";20,75;"RIMI SM RINGAUDAI\VARZUPIO G.1, RINGAUDU K.\KAUNO R.\53348        LTU";"";"";"";"";"21/10/2023 15:25 kortelė...178803 RIMI SM RINGAUDAI/KAUNO R./LTU #155559, dok. nr. CLR7098646, operacijos nr. RO1248191576L01";"RO1248191576L01";2023-10-21;"PMNTCCRDOTHR-Atsiskaitymas POS Debit MC Mylimiausia";"";"D";20,75;"LT067044090102136963";"EUR";
"CLR7098646";2023-10-23;"EUR";18,50;"KUMELIUKO SAPNAS\J. BILIUNO G. 1\KAUNO R.\53447        LTU";"";"";"";"";"21/10/2023 16:06 kortelė...178803 KUMELIUKO SAPNAS/KAUNO R./LTU #158020, dok. nr. CLR7098646, operacijos nr. RO1248229136L01";"RO1248229136L01";2023-10-21;"PMNTCCRDOTHR-Atsiskaitymas POS Debit MC Mylimiausia";"";"D";18,50;"LT067044090102136963";"EUR";
"CLR7098646";2023-10-23;"EUR";11,99;"BENU 7237\ISLANDIJOS PL. 32\KAUNAS\000          LTU";"";"";"";"";"21/10/2023 14:27 kortelė...178803 BENU 7237/KAUNAS/LTU #152031, dok. nr. CLR7098646, operacijos nr. RO1248237519L01";"RO1248237519L01";2023-10-21;"PMNTCCRDOTHR-Atsiskaitymas POS Debit MC Mylimiausia";"";"D";11,99;"LT067044090102136963";"EUR";
"CLR7098646";2023-10-23;"EUR";6,20;"L.CIORAITIENE*MESOS PR\PRAMONES PR. 16           \KAUNAS       \51186     LTULTU";"";"";"";"";"21/10/2023 12:11 kortelė...178803 L.CIORAITIENE*MESOS PR/KAUNAS/LTU #143895, dok. nr. CLR7098646, operacijos nr. RO1248335856L01";"RO1248335856L01";2023-10-21;"PMNTCCRDOTHR-Atsiskaitymas POS Debit MC Mylimiausia";"";"D";6,20;"LT067044090102136963";"EUR";
"CLR7097324";2023-10-23;"EUR";7,38;"Birzu duonos krautuve\Pramones pr. 16\Kaunas\51185     LTULTU";"";"";"";"";"21/10/2023 12:38 kortelė...178803 Birzu duonos krautuve/Kaunas/LTU #145588, dok. nr. CLR7097324, operacijos nr. RO1248738284L01";"RO1248738284L01";2023-10-21;"PMNTCCRDOTHR-Atsiskaitymas POS Debit MC Mylimiausia";"";"D";7,38;"LT067044090102136963";"EUR";
"CLR7121156";2023-10-26;"EUR";41,51;"RIMI SM RINGAUDAI\VARZUPIO G.1, RINGAUDU K.\KAUNO R.\53348        LTU";"";"";"";"";"25/10/2023 10:27 kortelė...178803 RIMI SM RINGAUDAI/KAUNO R./LTU #537658, dok. nr. CLR7121156, operacijos nr. RO1251621117L01";"RO1251621117L01";2023-10-25;"PMNTCCRDOTHR-Atsiskaitymas POS Debit MC Mylimiausia";"";"D";41,51;"LT067044090102136963";"EUR";
"CLR7121156";2023-10-26;"EUR";10,00;"VI REGITRA\Raudondvario g. 234B\KAUNAS\47158        LTU";"";"";"";"";"25/10/2023 09:22 kortelė...178803 VI REGITRA/KAUNAS/LTU #533758, dok. nr. CLR7121156, operacijos nr. RO1251651731L01";"RO1251651731L01";2023-10-25;"PMNTCCRDOTHR-Atsiskaitymas POS Debit MC Mylimiausia";"";"D";10,00;"LT067044090102136963";"EUR";
"CLR7134165";2023-10-28;"EUR";1,29;"Parduotuve Bostonas\J. Janonio g. 2, Kacergine\Kauno r.\53446     LTULTU";"";"";"";"";"27/10/2023 09:39 kortelė...178803 Parduotuve Bostonas/Kauno r./LTU #734759, dok. nr. CLR7134165, operacijos nr. RO1253985718L01";"RO1253985718L01";2023-10-27;"PMNTCCRDOTHR-Atsiskaitymas POS Debit MC Mylimiausia";"";"D";1,29;"LT067044090102136963";"EUR";
"REVITR23102964620285396";2023-10-29;"EUR";300,00;"Adomas Boruta";"";"LT903250057001793242";"REVOLUT PAYMENTS UAB";"REVOLT21";"Sent from Revolut, dok. nr. REVITR23102964620285396, unik. mokėj. kodas NOTPROVIDED, operacijos nr. RO1254891500L02";"RO1254891500L02";2023-10-29;"PMNTRCDTESCT-Lėšų įskaitymas - Momentinis mokėjimas";"";"C";300,00;"LT067044090102136963";"EUR";
"";2023-10-29;"EUR";33,70;"GINTARINĖ VAISTINĖ UAB";"";"LT127290099014754797";"AS CITADELE BANKA LIETUVOS FILIALAS";"INDULT2X";"PSD2 - 99068, unik. mokėj. kodas 22961487, operacijos nr. RD193920283";"RD193920283";2023-10-29;"PMNTICDTESCT-Momentinis mokėjimas, lėšų nurašymas";"";"D";33,70;"LT067044090102136963";"EUR";
"123BSRZW85MM";2023-10-30;"EUR";5808,00;"UAB Probonas";"1401292";"LU290670006550210148";"J.P. MORGAN BANK LUXEMBOURG S.A.";"CHASLULX";"1023-SALARY-f571-Probonas, dok. nr. 123BSRZW85MM, unik. mokėj. kodas 1QMEMOA59JRYVG0, mok. ident. kodas 1401292, mokėjimo tipas PAYR, operacijos nr. RMI12019987";"RMI12019987";2023-10-30;"PMNTRCDTESCT-Lėšų įskaitymas - SEPA mokėjimas";"";"C";5808,00;"LT067044090102136963";"EUR";
"CLR7145259";2023-10-30;"EUR";204,61;"KESKO SENUKAI LITHUANI\ISLANDIJOS PL. 32\KAUNAS\LT-49112     LTU";"";"";"";"";"29/10/2023 17:53 kortelė...178803 KESKO SENUKAI LITHUANI/KAUNAS/LTU #960830, dok. nr. CLR7145259, operacijos nr. RO1255529379L01";"RO1255529379L01";2023-10-29;"PMNTCCRDOTHR-Atsiskaitymas POS Debit MC Mylimiausia";"";"D";204,61;"LT067044090102136963";"EUR";
"CLR7145259";2023-10-30;"EUR";18,06;"IKI RINGAUDAI\MARGIRIO G.2A, RINGAUDU K.\KAUNO R.\53335        LTU";"";"";"";"";"29/10/2023 09:53 kortelė...178803 IKI RINGAUDAI/KAUNO R./LTU #935593, dok. nr. CLR7145259, operacijos nr. RO1255536770L01";"RO1255536770L01";2023-10-29;"PMNTCCRDOTHR-Atsiskaitymas POS Debit MC Mylimiausia";"";"D";18,06;"LT067044090102136963";"EUR";
"74876469";2023-10-30;"EUR";1000,00;"Adomas Boruta";"";"LT903250057001793242";"REVOLUT PAYMENTS UAB";"REVOLT21";"Pervedimas į Revolut, dok. nr. 74876469, operacijos nr. RD193967149";"RD193967149";2023-10-30;"PMNTICDTESCT-Momentinis mokėjimas, lėšų nurašymas";"";"D";1000,00;"LT067044090102136963";"EUR";
"CLR7145259";2023-10-30;"EUR";46,27;"RIMI ISLANDIJOS\ISLANDIJOS PL. 32\KAUNAS\UNKNOWN      LTU";"";"";"";"";"29/10/2023 17:30 kortelė...178803 RIMI ISLANDIJOS/KAUNAS/LTU #963051, dok. nr. CLR7145259, operacijos nr. RO1255555642L01";"RO1255555642L01";2023-10-29;"PMNTCCRDOTHR-Atsiskaitymas POS Debit MC Mylimiausia";"";"D";46,27;"LT067044090102136963";"EUR";
"CLR7145259";2023-10-30;"EUR";28,40;"Linos artele (Parent)\Islandijos pl. 32\Kaunas\47446     LTULTU";"";"";"";"";"29/10/2023 17:17 kortelė...178803 Linos artele (Parent)/Kaunas/LTU #958720, dok. nr. CLR7145259, operacijos nr. RO1255750503L01";"RO1255750503L01";2023-10-29;"PMNTCCRDOTHR-Atsiskaitymas POS Debit MC Mylimiausia";"";"D";28,40;"LT067044090102136963";"EUR";
"CLR7151836";2023-10-31;"EUR";100,24;"GINTARINE VAISTINE\V. LASO G. 1";"";"";"";"";"30/10/2023 09:55 kortelė...178803 GINTARINE VAISTINE/KAUNAS/LTU #035758, dok. nr. CLR7151836, operacijos nr. RO1256451085L01";"RO1256451085L01";2023-10-30;"PMNTCCRDOTHR-Atsiskaitymas POS Debit MC Mylimiausia";"";"D";100,24;"LT067044090102136963";"EUR";
"CLR7151836";2023-10-31;"EUR";2,00;"KONSULTACINES POLIKLIN\EIVENIU G.2\KAUNAS\50103        LTU";"";"";"";"";"30/10/2023 09:58 kortelė...178803 KONSULTACINES POLIKLIN/KAUNAS/LTU #035900, dok. nr. CLR7151836, operacijos nr. RO1256461673L01";"RO1256461673L01";2023-10-30;"PMNTCCRDOTHR-Atsiskaitymas POS Debit MC Mylimiausia";"";"D";2,00;"LT067044090102136963";"EUR";
"";2023-10-31;"EUR";256,24;"FOXPAY, UAB";"";"LT267044060007703758";"AB SEB BANKAS";"CBVILT2X";"Atsiskaitymas už prekes ar paslaugas babor-spa.lt(www.babor-spa.lt, Nr. 45650), unik. mokėj. kodas 4407822, operacijos nr. RO1257049836L01";"RO1257049836L01";2023-10-31;"PMNTICDTBOOK-Pinigų pervedimas į kito kliento sąskaitą SEB banke";"";"D";256,24;"LT067044090102136963";"EUR";
"CLR7156290";2023-11-01;"EUR";7,99;"Disney Plus\Taurusavenue 9\Hoofddorp\2132 LS   NLDNLD";"";"";"";"";"31/10/2023 18:43 kortelė...178803 Disney Plus/Hoofddorp/NLD #570996, dok. nr. CLR7156290, operacijos nr. RO1257392933L01";"RO1257392933L01";2023-10-31;"PMNTCCRDOTHR-Atsiskaitymas POS Debit MC Mylimiausia";"";"D";7,99;"LT067044090102136963";"EUR";
"CLR7158356";2023-11-01;"EUR";7,52;"IKI RINGAUDAI\MARGIRIO G.2A, RINGAUDU K.\KAUNO R.\53335        LTU";"";"";"";"";"31/10/2023 20:32 kortelė...178803 IKI RINGAUDAI/KAUNO R./LTU #573944, dok. nr. CLR7158356, operacijos nr. RO1257504034L01";"RO1257504034L01";2023-10-31;"PMNTCCRDOTHR-Atsiskaitymas POS Debit MC Mylimiausia";"";"D";7,52;"LT067044090102136963";"EUR";
"";2023-11-03;"EUR";400,00;"WLT237 Juozapaviciaus    >Kaunas      LT";"";"";"";"";"03/11/2023 15:30 card...8803 WLT90237 #660043, operacijos nr. RO1259381214L01";"RO1259381214L01";2023-11-03;"PMNTCCRDCWDL-Grynųjų išmokėjimas Debit MC Mylimiausia";"";"D";400,00;"LT067044090102136963";"EUR";
"CLR7177146";2023-11-04;"EUR";24,62;"GINTARINE VAISTINE\V. LASO G. 1";"";"";"";"";"03/11/2023 15:06 kortelė...178803 GINTARINE VAISTINE/KAUNAS/LTU #354398, dok. nr. CLR7177146, operacijos nr. RO1260208003L01";"RO1260208003L01";2023-11-03;"PMNTCCRDOTHR-Atsiskaitymas POS Debit MC Mylimiausia";"";"D";24,62;"LT067044090102136963";"EUR";
"";2023-11-04;"EUR";1,00;"SEB bankas";"";"";"";"";"1572796-SUMANU paslaugų planas - mėnesio mokestis už spalio mėn., operacijos nr. RO1260460070L01";"RO1260460070L01";2023-11-04;"ACMTMDOPFEES-Paslaugų plano SUMANU mėnesio mokestis";"";"D";1,00;"LT067044090102136963";"EUR";
"75557911";2023-11-05;"EUR";1200,00;"Adomas Boruta";"";"LT604010051005638896";"LUMINOR BANK AS LITHUANIAN BRANCH";"AGBLLT2X";"Pervedimas i luminor paskola, dok. nr. 75557911, operacijos nr. RD194410120";"RD194410120";2023-11-05;"PMNTICDTESCT-Momentinis mokėjimas, lėšų nurašymas";"";"D";1200,00;"LT067044090102136963";"EUR";
"75558125";2023-11-05;"EUR";20,00;"UAB ""VYČIO KOMISARAI""";"";"LT707044060007805495";"AB SEB BANKAS";"CBVILT2X";"072865, dok. nr. 75558125, operacijos nr. RO1261244213L01";"RO1261244213L01";2023-11-05;"PMNTICDTBOOK-Pinigų pervedimas į kito kliento sąskaitą SEB banke";"";"D";20,00;"LT067044090102136963";"EUR";
"";2023-11-06;"EUR";25,20;"UAB STOVA";"";"LT777044060006696271";"AB SEB BANKAS";"CBVILT2X";"Order ID: FUYR6T UP004, unik. mokėj. kodas FUYR6T, operacijos nr. RO1261490550L01";"RO1261490550L01";2023-11-06;"PMNTICDTBOOK-Pinigų pervedimas į kito kliento sąskaitą SEB banke";"";"D";25,20;"LT067044090102136963";"EUR";
"CLR7186896";2023-11-06;"EUR";110,69;"KESKO SENUKAI LITHUANI\ISLANDIJOS PL. 32\KAUNAS\UNKNOWN      LTU";"";"";"";"";"04/11/2023 13:12 kortelė...178803 KESKO SENUKAI LITHUANI/KAUNAS/LTU #447567, dok. nr. CLR7186896, operacijos nr. RO1261802370L01";"RO1261802370L01";2023-11-04;"PMNTCCRDOTHR-Atsiskaitymas POS Debit MC Mylimiausia";"";"D";110,69;"LT067044090102136963";"EUR";
"CLR7186896";2023-11-06;"EUR";171,93;"PROMO CASH&CARRY\Raudondvario pl. 131\KAUNAS\47191        LTU";"";"";"";"";"04/11/2023 14:34 kortelė...178803 PROMO CASH&CARRY/KAUNAS/LTU #452481, dok. nr. CLR7186896, operacijos nr. RO1261848774L01";"RO1261848774L01";2023-11-04;"PMNTCCRDOTHR-Atsiskaitymas POS Debit MC Mylimiausia";"";"D";171,93;"LT067044090102136963";"EUR";
"CLR7185628";2023-11-06;"EUR";70,00;"CREME DE LA CREME MEGA\ISLANDIJOS PL. 32         \KAUNAS       \47446     LTULTU";"";"";"";"";"04/11/2023 13:22 kortelė...178803 CREME DE LA CREME MEGA/KAUNAS/LTU #448160, dok. nr. CLR7185628, operacijos nr. RO1261873735L01";"RO1261873735L01";2023-11-04;"PMNTCCRDOTHR-Atsiskaitymas POS Debit MC Mylimiausia";"";"D";70,00;"LT067044090102136963";"EUR";
"CLR7186896";2023-11-06;"EUR";2,00;"KONSULTACINES POLIKLIN\EIVENIU G.2\KAUNAS\50103        LTU";"";"";"";"";"03/11/2023 15:09 kortelė...178803 KONSULTACINES POLIKLIN/KAUNAS/LTU #354574, dok. nr. CLR7186896, operacijos nr. RO1261895319L01";"RO1261895319L01";2023-11-03;"PMNTCCRDOTHR-Atsiskaitymas POS Debit MC Mylimiausia";"";"D";2,00;"LT067044090102136963";"EUR";
"CLR7188119";2023-11-06;"EUR";26,12;"IKI RINGAUDAI\MARGIRIO G.2A, RINGAUDU K.\KAUNO R.\53335        LTU";"";"";"";"";"05/11/2023 14:38 kortelė...178803 IKI RINGAUDAI/KAUNO R./LTU #552732, dok. nr. CLR7188119, operacijos nr. RO1262063076L01";"RO1262063076L01";2023-11-05;"PMNTCCRDOTHR-Atsiskaitymas POS Debit MC Mylimiausia";"";"D";26,12;"LT067044090102136963";"EUR";
"CLR7188119";2023-11-06;"EUR";7,50;"TROLIU PICA\MARGIRIO G. 2A\KAUNAS\UNKNOWN      LTU";"";"";"";"";"05/11/2023 14:23 kortelė...178803 TROLIU PICA/KAUNAS/LTU #551812, dok. nr. CLR7188119, operacijos nr. RO1262109462L01";"RO1262109462L01";2023-11-05;"PMNTCCRDOTHR-Atsiskaitymas POS Debit MC Mylimiausia";"";"D";7,50;"LT067044090102136963";"EUR";
"CLR7188119";2023-11-06;"EUR";68,05;"GINTARINE VAISTINE\MARGIO G. 2A\KAUNO R.\53335        LTU";"";"";"";"";"05/11/2023 14:26 kortelė...178803 GINTARINE VAISTINE/KAUNO R./LTU #552001, dok. nr. CLR7188119, operacijos nr. RO1262111552L01";"RO1262111552L01";2023-11-05;"PMNTCCRDOTHR-Atsiskaitymas POS Debit MC Mylimiausia";"";"D";68,05;"LT067044090102136963";"EUR";
"CLR7188119";2023-11-06;"EUR";3,22;"UAB Vilniaus alus\Margirio g. 2A, Ringaudai\Kauno r.\53335     KU LTU";"";"";"";"";"05/11/2023 14:44 kortelė...178803 UAB Vilniaus alus/Kauno r./LTU #553083, dok. nr. CLR7188119, operacijos nr. RO1262140103L01";"RO1262140103L01";2023-11-05;"PMNTCCRDOTHR-Atsiskaitymas POS Debit MC Mylimiausia";"";"D";3,22;"LT067044090102136963";"EUR";
"CLR7189149";2023-11-06;"EUR";126,00;"Hotel at Booking.com\Weteringschans 28\Amsterdam\1017 SG   NLDNLD";"";"";"";"";"06/11/2023 06:58 kortelė...178803 Hotel at Booking.com/Amsterdam/NLD #628674, dok. nr. CLR7189149, operacijos nr. RO1262195284L01";"RO1262195284L01";2023-11-06;"PMNTCCRDOTHR-Atsiskaitymas POS Debit MC Mylimiausia";"";"D";126,00;"LT067044090102136963";"EUR";
"CLR7195569";2023-11-07;"EUR";2,63;"RIMI SM RINGAUDAI\VARZUPIO G.1, RINGAUDU K.\KAUNO R.\53348        LTU";"";"";"";"";"06/11/2023 11:05 kortelė...178803 RIMI SM RINGAUDAI/KAUNO R./LTU #639931, dok. nr. CLR7195569, operacijos nr. RO1263200902L01";"RO1263200902L01";2023-11-06;"PMNTCCRDOTHR-Atsiskaitymas POS Debit MC Mylimiausia";"";"D";2,63;"LT067044090102136963";"EUR";
"CLR7195569";2023-11-07;"EUR";12,40;"GINTARINE VAISTINE\VARZUPIO G.1, RINGAUDAI\KAUNO R.\53348        LTU";"";"";"";"";"06/11/2023 11:03 kortelė...178803 GINTARINE VAISTINE/KAUNO R./LTU #639810, dok. nr. CLR7195569, operacijos nr. RO1263220238L01";"RO1263220238L01";2023-11-06;"PMNTCCRDOTHR-Atsiskaitymas POS Debit MC Mylimiausia";"";"D";12,40;"LT067044090102136963";"EUR";
"CLR7195569";2023-11-07;"EUR";1,00;"KONSULTACINES POLIKLIN\EIVENIU G.2\KAUNAS\50103        LTU";"";"";"";"";"06/11/2023 08:02 kortelė...178803 KONSULTACINES POLIKLIN/KAUNAS/LTU #628969, dok. nr. CLR7195569, operacijos nr. RO1263224170L01";"RO1263224170L01";2023-11-06;"PMNTCCRDOTHR-Atsiskaitymas POS Debit MC Mylimiausia";"";"D";1,00;"LT067044090102136963";"EUR";
"CLR7195569";2023-11-07;"EUR";56,43;"SKULAS_VIRBALISKIAI   \VIRBALISKIAI, VERSLO G. 2 \KAUNO RAJ.   \53458     LTULTU";"";"";"";"";"05/11/2023 14:53 kortelė...178803 SKULAS_VIRBALISKIAI/KAUNO RAJ./LTU #553607, dok. nr. CLR7195569, operacijos nr. RO1263304326L01";"RO1263304326L01";2023-11-05;"PMNTCCRDOTHR-Atsiskaitymas POS Debit MC Mylimiausia";"";"D";56,43;"LT067044090102136963";"EUR";
"CLR7202603";2023-11-09;"EUR";0,24;"GINTARINE VAISTINE\VARZUPIO G.1, RINGAUDAI\KAUNO R.\53348        LTU";"";"";"";"";"08/11/2023 10:16 kortelė...178803 GINTARINE VAISTINE/KAUNO R./LTU #836987, dok. nr. CLR7202603, operacijos nr. RO1265185330L01";"RO1265185330L01";2023-11-08;"PMNTCCRDOTHR-Atsiskaitymas POS Debit MC Mylimiausia";"";"D";0,24;"LT067044090102136963";"EUR";
"76031374";2023-11-09;"EUR";1000,00;"Adomas Boruta";"";"LT903250057001793242";"REVOLUT PAYMENTS UAB";"REVOLT21";"Pervedimas į Revolut, dok. nr. 76031374, operacijos nr. RD194804614";"RD194804614";2023-11-09;"PMNTICDTESCT-Momentinis mokėjimas, lėšų nurašymas";"";"D";1000,00;"LT067044090102136963";"EUR";
"CLR7208051";2023-11-09;"EUR";2,00;"KAUNO KLINIKU AIKSTELE\EIVENIU G.2               \KAUNAS       \50161     LTULTU";"";"";"";"";"08/11/2023 17:17 kortelė...178803 KAUNO KLINIKU AIKSTELE/KAUNAS/LTU #862258, dok. nr. CLR7208051, operacijos nr. RO1265557102L01";"RO1265557102L01";2023-11-08;"PMNTCCRDOTHR-Atsiskaitymas POS Debit MC Mylimiausia";"";"D";2,00;"LT067044090102136963";"EUR";
"CLR7208051";2023-11-09;"EUR";76,11;"RIMI ISLANDIJOS\ISLANDIJOS PL. 32\KAUNAS\UNKNOWN      LTU";"";"";"";"";"08/11/2023 18:24 kortelė...178803 RIMI ISLANDIJOS/KAUNAS/LTU #866301, dok. nr. CLR7208051, operacijos nr. RO1265606962L01";"RO1265606962L01";2023-11-08;"PMNTCCRDOTHR-Atsiskaitymas POS Debit MC Mylimiausia";"";"D";76,11;"LT067044090102136963";"EUR";
"CLR7208051";2023-11-09;"EUR";7,03;"RIMI SM RINGAUDAI\VARZUPIO G.1, RINGAUDU K.\KAUNO R.\53348        LTU";"";"";"";"";"08/11/2023 20:34 kortelė...178803 RIMI SM RINGAUDAI/KAUNO R./LTU #874076, dok. nr. CLR7208051, operacijos nr. RO1265610080L01";"RO1265610080L01";2023-11-08;"PMNTCCRDOTHR-Atsiskaitymas POS Debit MC Mylimiausia";"";"D";7,03;"LT067044090102136963";"EUR";
"CLR7208051";2023-11-09;"EUR";1,00;"AIRINN VILNIUS RECEPTI\RODUNIOS KELIAS 8\VILNIUS\000          LTU";"";"";"";"";"08/11/2023 22:05 kortelė...178803 AIRINN VILNIUS RECEPTI/VILNIUS/LTU #879525, dok. nr. CLR7208051, operacijos nr. RO1265645602L01";"RO1265645602L01";2023-11-08;"PMNTCCRDOTHR-Atsiskaitymas POS Debit MC Mylimiausia";"";"D";1,00;"LT067044090102136963";"EUR";
"CLR7221950";2023-11-12;"EUR";29,53;"TFL UNPAID FARE\VICTORIA STREET\TFL.GOV.UK";"";"";"";"";"10/11/2023 06:19 25.00 GBP(28.77 EUR + mokestis 0.76 EUR(2.65%)) kortelė...178803 TFL UNPAID FARE/TFL.GOV.UK/CP/GBR #030771, dok. nr. CLR7221950, operacijos nr. RO1268519565L01";"RO1268519565L01";2023-11-10;"PMNTCCRDOTHR-Atsiskaitymas POS Debit MC Mylimiausia";"";"D";29,53;"LT067044090102136963";"EUR";
"";2023-11-13;"EUR";148,81;"UAB ELEKTRONINIŲ MOKĖJIMŲ AGENTŪRA";"";"LT317044060008070619";"AB SEB BANKAS";"CBVILT2X";"NIPS19-A1796072-0008 e.ignitis.lt krepšelis A1796072-0008, unik. mokėj. kodas NIPS19-26153636eadc8db5170430baddf5, operacijos nr. RO1269482572L01";"RO1269482572L01";2023-11-13;"PMNTICDTBOOK-Pinigų pervedimas į kito kliento sąskaitą SEB banke";"";"D";148,81;"LT067044090102136963";"EUR";
"76544545";2023-11-13;"EUR";100,00;"Adomas Boruta";"";"LT903250057001793242";"REVOLUT PAYMENTS UAB";"REVOLT21";"Pervedimas į Revolut, dok. nr. 76544545, operacijos nr. RD195241430";"RD195241430";2023-11-13;"PMNTICDTESCT-Momentinis mokėjimas, lėšų nurašymas";"";"D";100,00;"LT067044090102136963";"EUR";
"2464625231113090657";2023-11-13;"EUR";10,42;"AB ENERGIJOS SKIRSTYMO OPERATORIUS";"";"LT417044060000321788";"AB SEB BANKAS";"CBVILT2X";"#BL. Vartotojo kodas Nr.#21436367#.Už elektros energiją sąsk. nr.EAPT00017394#sąsk. data#2023-11-04, dok. nr. 2464625231113090657, unik. mokėj. kodas EAPT00017394, operacijos nr. RO1269495670L01";"RO1269495670L01";2023-11-13;"PMNTICDTBOOK-už pervedimą banko viduje internetu";"";"D";10,42;"LT067044090102136963";"EUR";
"";2023-11-13;"EUR";23,34;"FOXPAY, UAB";"";"LT267044060007703758";"AB SEB BANKAS";"CBVILT2X";"#39505010558# #ADOMAS BORUTA# #Juozo Zikaro g. 6-2, Kačerginės mst., Kačerginės sen., Kauno r. sav. 53450#, unik. mokėj. kodas 4491310, operacijos nr. RO1269512583L01";"RO1269512583L01";2023-11-13;"PMNTICDTBOOK-Pinigų pervedimas į kito kliento sąskaitą SEB banke";"";"D";23,34;"LT067044090102136963";"EUR";
"6tDlbMX9EXQqgMdJAm0W";2023-11-13;"EUR";17,90;"TELIA LIETUVA, AB";"";"LT777044060000921667";"AB SEB BANKAS";"CBVILT2X";"H2023111311551882808HCBL 72116573, dok. nr. 6tDlbMX9EXQqgMdJAm0W, unik. mokėj. kodas T-1008XOL6, operacijos nr. RO1269824560L01";"RO1269824560L01";2023-11-13;"PMNTICDTBOOK-už pervedimą banko viduje internetu";"";"D";17,90;"LT067044090102136963";"EUR";
"";2023-11-14;"EUR";117,94;"UAB FELIT";"";"LT427044090101046326";"AB SEB BANKAS";"CBVILT2X";"www.ikea.lt/LT, st734488, KY2LX7PQ/0, unik. mokėj. kodas 734488, operacijos nr. RO1271459518L01";"RO1271459518L01";2023-11-14;"PMNTICDTBOOK-Pinigų pervedimas į kito kliento sąskaitą SEB banke";"";"D";117,94;"LT067044090102136963";"EUR";
"CLR7244998";2023-11-15;"EUR";14,50;"MANAMI\RODUNIOS KELIAS 2\VILNIUS\UNKNOWN      LTU";"";"";"";"";"09/11/2023 05:06 kortelė...178803 MANAMI/VILNIUS/LTU #918398, dok. nr. CLR7244998, operacijos nr. RO1272252660L01";"RO1272252660L01";2023-11-09;"PMNTCCRDOTHR-Atsiskaitymas POS Debit MC Mylimiausia";"";"D";14,50;"LT067044090102136963";"EUR";
"CLR7251293";2023-11-16;"EUR";10,95;"UAB ARKIETE\KARALIAUS MINDAUGO PR. 49\KAUNAS\UNKNOWN      LTU";"";"";"";"";"15/11/2023 20:37 kortelė...178803 UAB ARKIETE/KAUNAS/LTU #574248, dok. nr. CLR7251293, operacijos nr. RO1273344301L01";"RO1273344301L01";2023-11-15;"PMNTCCRDOTHR-Atsiskaitymas POS Debit MC Mylimiausia";"";"D";10,95;"LT067044090102136963";"EUR";
"CLR7251293";2023-11-16;"EUR";14,90;"PARDUOTUVE KRINONA\KARALIAUS MINDAUGO PR. 49\KAUNAS\UNKNOWN      LTU";"";"";"";"";"15/11/2023 20:32 kortelė...178803 PARDUOTUVE KRINONA/KAUNAS/LTU #573930, dok. nr. CLR7251293, operacijos nr. RO1273345310L01";"RO1273345310L01";2023-11-15;"PMNTCCRDOTHR-Atsiskaitymas POS Debit MC Mylimiausia";"";"D";14,90;"LT067044090102136963";"EUR";
"CLR7257576";2023-11-17;"EUR";52,27;"RIMI SM RINGAUDAI\VARZUPIO G.1, RINGAUDU K.\KAUNO R.\53348        LTU";"";"";"";"";"16/11/2023 10:07 kortelė...178803 RIMI SM RINGAUDAI/KAUNO R./LTU #636477, dok. nr. CLR7257576, operacijos nr. RO1274369131L01";"RO1274369131L01";2023-11-16;"PMNTCCRDOTHR-Atsiskaitymas POS Debit MC Mylimiausia";"";"D";52,27;"LT067044090102136963";"EUR";
"CLR7257576";2023-11-17;"EUR";61,70;"PILENU SVEIKATOS PRIEZ\STUDENTU G. 1, AKADEMIJA\KAUNO R.\UNKNOWN      LTU";"";"";"";"";"16/11/2023 09:40 kortelė...178803 PILENU SVEIKATOS PRIEZ/KAUNO R./LTU #634845, dok. nr. CLR7257576, operacijos nr. RO1274428827L01";"RO1274428827L01";2023-11-16;"PMNTCCRDOTHR-Atsiskaitymas POS Debit MC Mylimiausia";"";"D";61,70;"LT067044090102136963";"EUR";
"CLR7271385";2023-11-20;"EUR";44,75;"Devyni drakonai-3\Ozo g. 18\Vilnius\08243     LTULTU";"";"";"";"";"18/11/2023 16:35 kortelė...178803 Devyni drakonai-3/Vilnius/LTU #859716, dok. nr. CLR7271385, operacijos nr. RO1276638569L01";"RO1276638569L01";2023-11-18;"PMNTCCRDOTHR-Atsiskaitymas POS Debit MC Mylimiausia";"";"D";44,75;"LT067044090102136963";"EUR";
"CLR7272631";2023-11-20;"EUR";23,38;"UAB EUROVAISTINE V0217\KARALIAUS MINDAUGO PR. 49 \KAUNAS       \44333     LTULTU";"";"";"";"";"18/11/2023 16:44 kortelė...178803 UAB EUROVAISTINE V0217/KAUNAS/LTU #860256, dok. nr. CLR7272631, operacijos nr. RO1276956658L01";"RO1276956658L01";2023-11-18;"PMNTCCRDOTHR-Atsiskaitymas POS Debit MC Mylimiausia";"";"D";23,38;"LT067044090102136963";"EUR";
"CLR7271842";2023-11-20;"EUR";155,49;"DEPO\VAKARINIS APLINKELIS 8\KAUNAS\UNKNOWN      LTU";"";"";"";"";"18/11/2023 14:41 kortelė...178803 DEPO/KAUNAS/LTU #852899, dok. nr. CLR7271842, operacijos nr. RO1277248072L01";"RO1277248072L01";2023-11-18;"PMNTCCRDOTHR-Atsiskaitymas POS Debit MC Mylimiausia";"";"D";155,49;"LT067044090102136963";"EUR";
"CLR7271842";2023-11-20;"EUR";199,00;"DEPO\VAKARINIS APLINKELIS 8\KAUNAS\UNKNOWN      LTU";"";"";"";"";"18/11/2023 14:25 kortelė...178803 DEPO/KAUNAS/LTU #851922, dok. nr. CLR7271842, operacijos nr. RO1277248202L01";"RO1277248202L01";2023-11-18;"PMNTCCRDOTHR-Atsiskaitymas POS Debit MC Mylimiausia";"";"D";199,00;"LT067044090102136963";"EUR";
"CLR7271842";2023-11-20;"EUR";56,96;"TOPO CENTRAS\KARALIAUS MINDAUGO PR. 49\KAUNAS\UNKNOWN      LTU";"";"";"";"";"18/11/2023 17:46 kortelė...178803 TOPO CENTRAS/KAUNAS/LTU #863977, dok. nr. CLR7271842, operacijos nr. RO1277340103L01";"RO1277340103L01";2023-11-18;"PMNTCCRDOTHR-Atsiskaitymas POS Debit MC Mylimiausia";"";"D";56,96;"LT067044090102136963";"EUR";
"CLR7274680";2023-11-20;"EUR";45,45;"SKULAS_VIRBALISKIAI   \VIRBALISKIAI, VERSLO G. 2 \KAUNO RAJ.   \53458     LTULTU";"";"";"";"";"16/11/2023 10:27 kortelė...178803 SKULAS_VIRBALISKIAI/KAUNO RAJ./LTU #637618, dok. nr. CLR7274680, operacijos nr. RO1277376222L01";"RO1277376222L01";2023-11-16;"PMNTCCRDOTHR-Atsiskaitymas POS Debit MC Mylimiausia";"";"D";45,45;"LT067044090102136963";"EUR";
"CLR7275280";2023-11-20;"EUR";3,36;"IKI RINGAUDAI\MARGIRIO G.2A, RINGAUDU K.\KAUNO R.\53335        LTU";"";"";"";"";"19/11/2023 14:36 kortelė...178803 IKI RINGAUDAI/KAUNO R./LTU #952612, dok. nr. CLR7275280, operacijos nr. RO1277503510L01";"RO1277503510L01";2023-11-19;"PMNTCCRDOTHR-Atsiskaitymas POS Debit MC Mylimiausia";"";"D";3,36;"LT067044090102136963";"EUR";
"CLR7275280";2023-11-20;"EUR";13,00;"TROLIU PICA\MARGIRIO G. 2A\KAUNAS\UNKNOWN      LTU";"";"";"";"";"19/11/2023 14:15 kortelė...178803 TROLIU PICA/KAUNAS/LTU #951302, dok. nr. CLR7275280, operacijos nr. RO1277552956L01";"RO1277552956L01";2023-11-19;"PMNTCCRDOTHR-Atsiskaitymas POS Debit MC Mylimiausia";"";"D";13,00;"LT067044090102136963";"EUR";
"CLR7275280";2023-11-20;"EUR";3,22;"UAB Vilniaus alus\Margirio g. 2A, Ringaudai\Kauno r.\53335     KU LTU";"";"";"";"";"19/11/2023 14:30 kortelė...178803 UAB Vilniaus alus/Kauno r./LTU #952248, dok. nr. CLR7275280, operacijos nr. RO1277686956L01";"RO1277686956L01";2023-11-19;"PMNTCCRDOTHR-Atsiskaitymas POS Debit MC Mylimiausia";"";"D";3,22;"LT067044090102136963";"EUR";
"CLR7281604";2023-11-21;"EUR";24,38;"RIMI SM RINGAUDAI\VARZUPIO G.1, RINGAUDU K.\KAUNO R.\53348        LTU";"";"";"";"";"20/11/2023 10:32 kortelė...178803 RIMI SM RINGAUDAI/KAUNO R./LTU #037938, dok. nr. CLR7281604, operacijos nr. RO1278430298L01";"RO1278430298L01";2023-11-20;"PMNTCCRDOTHR-Atsiskaitymas POS Debit MC Mylimiausia";"";"D";24,38;"LT067044090102136963";"EUR";
"REVITR23112181069488126";2023-11-21;"EUR";500,00;"Adomas Boruta";"";"LT903250057001793242";"REVOLUT PAYMENTS UAB";"REVOLT21";"Sent from Revolut, dok. nr. REVITR23112181069488126, unik. mokėj. kodas NOTPROVIDED, operacijos nr. RO1278516218L02";"RO1278516218L02";2023-11-21;"PMNTRCDTESCT-Lėšų įskaitymas - Momentinis mokėjimas";"";"C";500,00;"LT067044090102136963";"EUR";
"CLR7287731";2023-11-22;"EUR";9,85;"RIMI SM RINGAUDAI\VARZUPIO G.1, RINGAUDU K.\KAUNO R.\53348        LTU";"";"";"";"";"21/11/2023 14:35 kortelė...178803 RIMI SM RINGAUDAI/KAUNO R./LTU #152553, dok. nr. CLR7287731, operacijos nr. RO1279431250L01";"RO1279431250L01";2023-11-21;"PMNTCCRDOTHR-Atsiskaitymas POS Debit MC Mylimiausia";"";"D";9,85;"LT067044090102136963";"EUR";
"CLR7287731";2023-11-22;"EUR";76,35;"GINTARINE VAISTINE\V. LASO G. 1";"";"";"";"";"21/11/2023 14:03 kortelė...178803 GINTARINE VAISTINE/KAUNAS/LTU #150583, dok. nr. CLR7287731, operacijos nr. RO1279454704L01";"RO1279454704L01";2023-11-21;"PMNTCCRDOTHR-Atsiskaitymas POS Debit MC Mylimiausia";"";"D";76,35;"LT067044090102136963";"EUR";
"CLR7287731";2023-11-22;"EUR";6,58;"GINTARINE VAISTINE\VARZUPIO G.1, RINGAUDAI\KAUNO R.\53348        LTU";"";"";"";"";"21/11/2023 14:42 kortelė...178803 GINTARINE VAISTINE/KAUNO R./LTU #152944, dok. nr. CLR7287731, operacijos nr. RO1279454750L01";"RO1279454750L01";2023-11-21;"PMNTCCRDOTHR-Atsiskaitymas POS Debit MC Mylimiausia";"";"D";6,58;"LT067044090102136963";"EUR";
"CLR7287731";2023-11-22;"EUR";2,00;"KONSULTACINES POLIKLIN\EIVENIU G.2\KAUNAS\50103        LTU";"";"";"";"";"21/11/2023 14:05 kortelė...178803 KONSULTACINES POLIKLIN/KAUNAS/LTU #150714, dok. nr. CLR7287731, operacijos nr. RO1279459400L01";"RO1279459400L01";2023-11-21;"PMNTCCRDOTHR-Atsiskaitymas POS Debit MC Mylimiausia";"";"D";2,00;"LT067044090102136963";"EUR";
"CLR7293985";2023-11-23;"EUR";6,51;"IKI RINGAUDAI\MARGIRIO G.2A, RINGAUDU K.\KAUNO R.\53335        LTU";"";"";"";"";"22/11/2023 09:58 kortelė...178803 IKI RINGAUDAI/KAUNO R./LTU #235904, dok. nr. CLR7293985, operacijos nr. RO1280394479L01";"RO1280394479L01";2023-11-22;"PMNTCCRDOTHR-Atsiskaitymas POS Debit MC Mylimiausia";"";"D";6,51;"LT067044090102136963";"EUR";
"CLR7293985";2023-11-23;"EUR";5,83;"GINTARINE VAISTINE\MARGIO G. 2A\KAUNO R.\53335        LTU";"";"";"";"";"22/11/2023 09:55 kortelė...178803 GINTARINE VAISTINE/KAUNO R./LTU #235709, dok. nr. CLR7293985, operacijos nr. RO1280444294L01";"RO1280444294L01";2023-11-22;"PMNTCCRDOTHR-Atsiskaitymas POS Debit MC Mylimiausia";"";"D";5,83;"LT067044090102136963";"EUR";
"78020173";2023-11-26;"EUR";500,00;"Adomas Boruta";"";"LT903250057001793242";"REVOLUT PAYMENTS UAB";"REVOLT21";"Pervedimas į Revolut, dok. nr. 78020173, operacijos nr. RD196559043";"RD196559043";2023-11-26;"PMNTICDTESCT-Momentinis mokėjimas, lėšų nurašymas";"";"D";500,00;"LT067044090102136963";"EUR";
"CLR7313928";2023-11-26;"EUR";4,33;"UAB Lama\J. Biliuno g. 1, Kacergine\Kauno r.\53447     KU LTU";"";"";"";"";"25/11/2023 15:35 kortelė...178803 UAB Lama/Kauno r./LTU #556203, dok. nr. CLR7313928, operacijos nr. RO1283480968L01";"RO1283480968L01";2023-11-25;"PMNTCCRDOTHR-Atsiskaitymas POS Debit MC Mylimiausia";"";"D";4,33;"LT067044090102136963";"EUR";
"CLR7319172";2023-11-27;"EUR";15,66;"IKI RINGAUDAI\MARGIRIO G.2A, RINGAUDU K.\KAUNO R.\53335        LTU";"";"";"";"";"26/11/2023 13:02 kortelė...178803 IKI RINGAUDAI/KAUNO R./LTU #646965, dok. nr. CLR7319172, operacijos nr. RO1284230624L01";"RO1284230624L01";2023-11-26;"PMNTCCRDOTHR-Atsiskaitymas POS Debit MC Mylimiausia";"";"D";15,66;"LT067044090102136963";"EUR";
"CLR7319172";2023-11-27;"EUR";17,47;"UAB Vilniaus alus\Margirio g. 2A, Ringaudai\Kauno r.\53335     KU LTU";"";"";"";"";"26/11/2023 12:54 kortelė...178803 UAB Vilniaus alus/Kauno r./LTU #646468, dok. nr. CLR7319172, operacijos nr. RO1284451482L01";"RO1284451482L01";2023-11-26;"PMNTCCRDOTHR-Atsiskaitymas POS Debit MC Mylimiausia";"";"D";17,47;"LT067044090102136963";"EUR";
"REVITR23112885955274568";2023-11-28;"EUR";75,00;"Adomas Boruta";"";"LT903250057001793242";"REVOLUT PAYMENTS UAB";"REVOLT21";"Sent from Revolut, dok. nr. REVITR23112885955274568, unik. mokėj. kodas NOTPROVIDED, operacijos nr. RO1285069193L02";"RO1285069193L02";2023-11-28;"PMNTRCDTESCT-Lėšų įskaitymas - Momentinis mokėjimas";"";"C";75,00;"LT067044090102136963";"EUR";
"78198309";2023-11-28;"EUR";76,63;"VALSTYBĖS ĮMONĖ REGISTRŲ CENTRAS";"";"LT477044060005572969";"AB SEB BANKAS";"CBVILT2X";"37702040-1, dok. nr. 78198309, operacijos nr. RO1285071963L01";"RO1285071963L01";2023-11-28;"PMNTICDTBOOK-Pinigų pervedimas į kito kliento sąskaitą SEB banke";"";"D";76,63;"LT067044090102136963";"EUR";
"CLR7325551";2023-11-28;"EUR";17,35;"SKULAS_VIRBALISKIAI   \VIRBALISKIAI, VERSLO G. 2 \KAUNO RAJ.   \53458     LTULTU";"";"";"";"";"26/11/2023 12:38 kortelė...178803 SKULAS_VIRBALISKIAI/KAUNO RAJ./LTU #645522, dok. nr. CLR7325551, operacijos nr. RO1285650421L01";"RO1285650421L01";2023-11-26;"PMNTCCRDOTHR-Atsiskaitymas POS Debit MC Mylimiausia";"";"D";17,35;"LT067044090102136963";"EUR";
"REVITR23112986782834243";2023-11-29;"EUR";75,00;"Adomas Boruta";"";"LT903250057001793242";"REVOLUT PAYMENTS UAB";"REVOLT21";"Sent from Revolut, dok. nr. REVITR23112986782834243, unik. mokėj. kodas NOTPROVIDED, operacijos nr. RO1286013060L02";"RO1286013060L02";2023-11-29;"PMNTRCDTESCT-Lėšų įskaitymas - Momentinis mokėjimas";"";"C";75,00;"LT067044090102136963";"EUR";
"12GNSQV74SNY";2023-11-29;"EUR";5808,00;"UAB Probonas";"1401292";"LU290670006550210148";"J.P. MORGAN BANK LUXEMBOURG S.A.";"CHASLULX";"1123-SALARY-7a11-Probonas VnL5K2Z7, dok. nr. 12GNSQV74SNY, unik. mokėj. kodas EFXMY7RVYIMUQQ9, mok. ident. kodas 1401292, mokėjimo tipas PAYR, operacijos nr. RMI12339426";"RMI12339426";2023-11-29;"PMNTRCDTESCT-Lėšų įskaitymas - SEPA mokėjimas";"";"C";5808,00;"LT067044090102136963";"EUR";
"";2023-11-29;"EUR";216,00;"AB ,,LIETUVOS DRAUDIMAS""";"";"LT637044060000364363";"AB SEB BANKAS";"CBVILT2X";"www.savasld.lt/LT, st609429, 3524198, unik. mokėj. kodas 609429, operacijos nr. RO1286699181L01";"RO1286699181L01";2023-11-29;"PMNTICDTBOOK-Pinigų pervedimas į kito kliento sąskaitą SEB banke";"";"D";216,00;"LT067044090102136963";"EUR";
"78363130";2023-11-29;"EUR";200,00;"Adomas Boruta";"";"LT903250057001793242";"REVOLUT PAYMENTS UAB";"REVOLT21";"Pervedimas į Revolut, dok. nr. 78363130, operacijos nr. RD196880015";"RD196880015";2023-11-29;"PMNTICDTESCT-Momentinis mokėjimas, lėšų nurašymas";"";"D";200,00;"LT067044090102136963";"EUR";
"62";2023-11-30;"EUR";6,40;"AB ""LIETUVOS DRAUDIMAS""";"";"LT637044060000364363";"AB SEB BANKAS";"CBVILT2X";", EINV:29970619P:846130985, dok. nr. 62, unik. mokėj. kodas EINV:29970619 P:846130985, prad. mok. ident. kodas E63751146, mokėjimo tipas IVPT, operacijos nr. RO1287091682L01";"RO1287091682L01";2023-11-30;"PMNTICDTBOOK-Pinigų pervedimas į kito kliento sąskaitą SEB banke";"EINV:29970619P:846130985";"D";6,40;"LT067044090102136963";"EUR";
"78525825";2023-11-30;"EUR";364,00;"LIETUVOS SVEIKATOS MOKSLŲ UNIVERSITETO LIGONINĖ KAUNO KLINIKOS";"";"LT707044060003369297";"AB SEB BANKAS";"CBVILT2X";"SUT-EM-23-0148, dok. nr. 78525825, operacijos nr. RO1288057047L01";"RO1288057047L01";2023-11-30;"PMNTICDTBOOK-Pinigų pervedimas į kito kliento sąskaitą SEB banke";"";"D";364,00;"LT067044090102136963";"EUR";
